{
  "0xcf0365470ec98b6ee3f1c7c7ec21fa4f651c7dad": {
    "1ST": "0.40567651",
    "ETH": "0.0963116284"
  },
  "0x1adbea0f2f0c50bc339c830a7f4d78091095fc02": {
    "ETH": "62.1829903143",
    "1ST": "4.0574073652",
    "ICN": "1.7462506758",
    "REP": "89.6058893627"
  },
  "0x61221b1b6d6e6a505540341f77eb51164bbf7371": {
    "REP": "0.4943000000",
    "ETH": "2.0737958610"
  },
  "0x278f4668412934717bdf692c0f3c585e300564f0": {
    "ETH": "0.1",
    "DGD": "1"
  },
  "0xb054e7683f26273b4ba7454df9a71c578506aa01": {
    "ETH": "9.995"
  },
  "0xac75b73394c329376c214663d92156afa864a77f": {
    "ETH": "2",
    "USD.DC": "65.86800552"
  },
  "0x00384f2e360882838eb24412240a671fc00a8462": {
    "ETH": "0.1550000001"
  }
}